<?xml version="1.0" encoding="UTF-8" standalone="no"?>
<!DOCTYPE svg PUBLIC "-//W3C//DTD SVG 1.1//EN" "http://www.w3.org/Graphics/SVG/1.1/DTD/svg11.dtd">
<!-- Generated by Microsoft Visio, SVG Export drc_x310_4.svg Page-3 -->
<svg xmlns="http://www.w3.org/2000/svg" xmlns:xlink="http://www.w3.org/1999/xlink" xmlns:ev="http://www.w3.org/2001/xml-events"
		xmlns:v="http://schemas.microsoft.com/visio/2003/SVGExtensions/" width="8.10166in" height="5.11317in"
		viewBox="0 0 583.32 368.149" xml:space="preserve" color-interpolation-filters="sRGB" class="st15">
	<v:documentProperties v:langID="2057" v:metric="true" v:viewMarkup="false">
		<v:userDefs>
			<v:ud v:nameU="msvNoAutoConnect" v:val="VT0(1):26"/>
		</v:userDefs>
	</v:documentProperties>

	<style type="text/css">
	<![CDATA[
		.st1 {fill:none;stroke:#000000;stroke-dasharray:5.25,3.75;stroke-linecap:round;stroke-linejoin:round;stroke-width:0.75}
		.st2 {fill:#000000;font-family:Calibri;font-size:1.00001em}
		.st3 {fill:#f2f2f2;stroke:#000000;stroke-linecap:round;stroke-linejoin:round;stroke-width:0.24}
		.st4 {fill:#000000;font-family:Calibri;font-size:0.666664em}
		.st5 {font-size:1em}
		.st6 {fill:#b7dde8;stroke:#000000;stroke-linecap:round;stroke-linejoin:round;stroke-width:0.24}
		.st7 {marker-end:url(#mrkr4-25);stroke:#000000;stroke-linecap:round;stroke-linejoin:round;stroke-width:0.75}
		.st8 {fill:#000000;fill-opacity:1;stroke:#000000;stroke-opacity:1;stroke-width:0.22935779816514}
		.st9 {fill:#d7e3bf;stroke:#000000;stroke-linecap:round;stroke-linejoin:round;stroke-width:0.24}
		.st10 {fill:#ffffff;stroke:#000000;stroke-linecap:round;stroke-linejoin:round;stroke-width:0.24}
		.st11 {marker-start:url(#mrkr13-151);stroke:#000000;stroke-linecap:round;stroke-linejoin:round;stroke-width:0.75}
		.st12 {marker-end:url(#mrkr13-157);stroke:#000000;stroke-linecap:round;stroke-linejoin:round;stroke-width:0.75}
		.st13 {fill:none;stroke:none;stroke-linecap:round;stroke-linejoin:round;stroke-width:0.75}
		.st14 {stroke:#000000;stroke-dasharray:5.25,3.75;stroke-linecap:round;stroke-linejoin:round;stroke-width:0.75}
		.st15 {fill:none;fill-rule:evenodd;font-size:12px;overflow:visible;stroke-linecap:square;stroke-miterlimit:3}
	]]>
	</style>

	<defs id="Markers">
		<g id="lend4">
			<path d="M 2 1 L 0 0 L 2 -1 L 2 1 " style="stroke:none"/>
		</g>
		<marker id="mrkr4-25" class="st8" v:arrowType="4" v:arrowSize="2" v:setback="8.72" refX="-8.72" orient="auto"
				markerUnits="strokeWidth" overflow="visible">
			<use xlink:href="#lend4" transform="scale(-4.36,-4.36) "/>
		</marker>
		<g id="lend13">
			<path d="M 3 1 L 0 0 L 3 -1 L 3 1 " style="stroke:none"/>
		</g>
		<marker id="mrkr13-151" class="st8" v:arrowType="13" v:arrowSize="2" v:setback="12.6" refX="12.6" orient="auto"
				markerUnits="strokeWidth" overflow="visible">
			<use xlink:href="#lend13" transform="scale(4.36) "/>
		</marker>
		<marker id="mrkr13-157" class="st8" v:arrowType="13" v:arrowSize="2" v:setback="13.08" refX="-13.08" orient="auto"
				markerUnits="strokeWidth" overflow="visible">
			<use xlink:href="#lend13" transform="scale(-4.36,-4.36) "/>
		</marker>
	</defs>
	<g v:mID="8" v:index="3" v:groupContext="foregroundPage">
		<title>Page-3</title>
		<v:pageProperties v:drawingScale="0.0393701" v:pageScale="0.0393701" v:drawingUnits="24" v:shadowOffsetX="8.50394"
				v:shadowOffsetY="-8.50394"/>
		<v:layer v:name="Connector" v:index="0"/>
		<g id="shape1-1" v:mID="1" v:groupContext="shape" transform="translate(113.648,-230.69)">
			<title>Sheet.1</title>
			<desc>DRC (single UBX-160 configuration)</desc>
			<v:textBlock v:margins="rect(4,4,4,4)" v:tabSpace="42.5197" v:verticalAlign="0"/>
			<v:textRect cx="225.649" cy="308.621" width="451.3" height="119.055"/>
			<path d="M0 368.15 L451.3 368.15 L451.3 249.09 L0 249.09 L0 368.15 Z" class="st1"/>
			<text x="139.83" y="263.89" class="st2" v:langID="2057"><v:paragraph v:horizAlign="1"/><v:tabList/>DRC (single UBX-160 configuration)</text>		</g>
		<g id="shape21-4" v:mID="21" v:groupContext="shape" transform="translate(246.331,-253.367)">
			<title>Sheet.21</title>
			<desc>data_source_qadc_csts.hdl &#60;HdlDevice&#62;</desc>
			<v:textBlock v:margins="rect(4,4,4,4)" v:tabSpace="42.5197"/>
			<v:textRect cx="70.936" cy="353.975" width="141.88" height="28.3465"/>
			<rect x="0" y="339.802" width="141.872" height="28.3465" class="st3"/>
			<text x="26.73" y="351.58" class="st4" v:langID="2057"><v:paragraph v:horizAlign="1"/><v:tabList/>data_source_qadc_csts.hdl<v:newlineChar/><tspan
						x="50.58" dy="1.2em" class="st5">&#60;HdlDevice&#62;</tspan></text>		</g>
		<g id="shape22-8" v:mID="22" v:groupContext="shape" transform="translate(246.331,-293.052)">
			<title>Sheet.22</title>
			<desc>data_sink_qdac_csts.hdl &#60;HdlDevice&#62;</desc>
			<v:textBlock v:margins="rect(4,4,4,4)" v:tabSpace="42.5197"/>
			<v:textRect cx="70.936" cy="353.975" width="141.88" height="28.3465"/>
			<rect x="0" y="339.802" width="141.872" height="28.3465" class="st3"/>
			<text x="31.18" y="351.58" class="st4" v:langID="2057"><v:paragraph v:horizAlign="1"/><v:tabList/>data_sink_qdac_csts.hdl<v:newlineChar/><tspan
						x="50.58" dy="1.2em" class="st5">&#60;HdlDevice&#62;</tspan></text>		</g>
		<g id="shape23-12" v:mID="23" v:groupContext="shape" transform="translate(414.709,-253.367)">
			<title>Sheet.23</title>
			<desc>ads62p48.hdl &#60;HdlDevice&#62;</desc>
			<v:textBlock v:margins="rect(4,4,4,4)" v:tabSpace="42.5197"/>
			<v:textRect cx="71.4589" cy="353.975" width="142.92" height="28.3465"/>
			<rect x="0" y="339.802" width="142.918" height="28.3465" class="st6"/>
			<text x="49.54" y="351.58" class="st4" v:langID="2057"><v:paragraph v:horizAlign="1"/><v:tabList/>ads62p48.hdl<v:newlineChar/><tspan
						x="51.11" dy="1.2em" class="st5">&#60;HdlDevice&#62;</tspan></text>		</g>
		<g id="shape24-16" v:mID="24" v:groupContext="shape" transform="translate(414.709,-293.052)">
			<title>Sheet.24</title>
			<desc>ad9146.hdl &#60;HdlDevice&#62;</desc>
			<v:textBlock v:margins="rect(4,4,4,4)" v:tabSpace="42.5197"/>
			<v:textRect cx="71.4589" cy="353.975" width="142.92" height="28.3465"/>
			<rect x="0" y="339.802" width="142.918" height="28.3465" class="st6"/>
			<text x="53.2" y="351.58" class="st4" v:langID="2057"><v:paragraph v:horizAlign="1"/><v:tabList/>ad9146.hdl<v:newlineChar/><tspan
						x="51.11" dy="1.2em" class="st5">&#60;HdlDevice&#62;</tspan></text>		</g>
		<g id="shape26-20" v:mID="26" v:groupContext="shape" v:layerMember="0" transform="translate(388.203,-300.139)">
			<title>Dynamic connector.179</title>
			<path d="M0 361.06 L19.97 361.06" class="st7"/>
		</g>
		<g id="shape27-26" v:mID="27" v:groupContext="shape" v:layerMember="0" transform="translate(414.709,-260.454)">
			<title>Dynamic connector.182</title>
			<path d="M0 361.06 L-19.97 361.06" class="st7"/>
		</g>
		<g id="shape28-31" v:mID="28" v:groupContext="shape" v:layerMember="0" transform="translate(246.331,-260.454)">
			<title>Dynamic connector.183</title>
			<path d="M0 361.06 L-12.17 361.06" class="st7"/>
		</g>
		<g id="shape32-36" v:mID="32" v:groupContext="shape" transform="translate(128.388,-293.052)">
			<title>Sheet.32</title>
			<desc>iq_calibration.hdl &#60;HdlWorker&#62;</desc>
			<v:textBlock v:margins="rect(4,4,4,4)" v:tabSpace="42.5197"/>
			<v:textRect cx="49.6172" cy="353.975" width="99.24" height="28.3465"/>
			<rect x="0" y="339.802" width="99.2344" height="28.3465" class="st9"/>
			<text x="21.15" y="351.58" class="st4" v:langID="2057"><v:paragraph v:horizAlign="1"/><v:tabList/>iq_calibration.hdl<v:newlineChar/><tspan
						x="27.86" dy="1.2em" class="st5">&#60;HdlWorker&#62;</tspan></text>		</g>
		<g id="shape33-40" v:mID="33" v:groupContext="shape" v:layerMember="0" transform="translate(227.622,-300.139)">
			<title>Dynamic connector</title>
			<path d="M0 361.06 L12.17 361.06" class="st7"/>
		</g>
		<g id="shape34-45" v:mID="34" v:groupContext="shape" transform="translate(128.388,-253.367)">
			<title>Sheet.34</title>
			<desc>iq_calibration.hdl &#60;HdlWorker&#62;</desc>
			<v:textBlock v:margins="rect(4,4,4,4)" v:tabSpace="42.5197"/>
			<v:textRect cx="49.6172" cy="353.975" width="99.24" height="28.3465"/>
			<rect x="0" y="339.802" width="99.2344" height="28.3465" class="st9"/>
			<text x="21.15" y="351.58" class="st4" v:langID="2057"><v:paragraph v:horizAlign="1"/><v:tabList/>iq_calibration.hdl<v:newlineChar/><tspan
						x="27.86" dy="1.2em" class="st5">&#60;HdlWorker&#62;</tspan></text>		</g>
		<g id="shape36-49" v:mID="36" v:groupContext="shape" transform="translate(113.648,-18.375)">
			<title>Sheet.36</title>
			<desc>DRC (dual UBX-160 configuration)</desc>
			<v:textBlock v:margins="rect(4,4,4,4)" v:tabSpace="42.5197" v:verticalAlign="0"/>
			<v:textRect cx="225.649" cy="273.33" width="451.3" height="189.638"/>
			<path d="M0 368.15 L451.3 368.15 L451.3 178.51 L0 178.51 L0 368.15 Z" class="st1"/>
			<text x="143.34" y="193.31" class="st2" v:langID="2057"><v:paragraph v:horizAlign="1"/><v:tabList/>DRC (dual UBX-160 configuration)</text>		</g>
		<g id="shape39-52" v:mID="39" v:groupContext="shape" transform="translate(247.395,-111.635)">
			<title>Sheet.39</title>
			<desc>data_source_qadc_csts.hdl &#60;HdlDevice&#62;</desc>
			<v:textBlock v:margins="rect(4,4,4,4)" v:tabSpace="42.5197"/>
			<v:textRect cx="70.936" cy="353.975" width="141.88" height="28.3465"/>
			<rect x="0" y="339.802" width="141.872" height="28.3465" class="st3"/>
			<text x="26.73" y="351.58" class="st4" v:langID="2057"><v:paragraph v:horizAlign="1"/><v:tabList/>data_source_qadc_csts.hdl<v:newlineChar/><tspan
						x="50.58" dy="1.2em" class="st5">&#60;HdlDevice&#62;</tspan></text>		</g>
		<g id="shape40-56" v:mID="40" v:groupContext="shape" transform="translate(246.331,-151.32)">
			<title>Sheet.40</title>
			<desc>data_sink_qdac_csts.hdl &#60;HdlDevice&#62;</desc>
			<v:textBlock v:margins="rect(4,4,4,4)" v:tabSpace="42.5197"/>
			<v:textRect cx="70.936" cy="353.975" width="141.88" height="28.3465"/>
			<rect x="0" y="339.802" width="141.872" height="28.3465" class="st3"/>
			<text x="31.18" y="351.58" class="st4" v:langID="2057"><v:paragraph v:horizAlign="1"/><v:tabList/>data_sink_qdac_csts.hdl<v:newlineChar/><tspan
						x="50.58" dy="1.2em" class="st5">&#60;HdlDevice&#62;</tspan></text>		</g>
		<g id="shape41-60" v:mID="41" v:groupContext="shape" transform="translate(415.533,-111.635)">
			<title>Sheet.41</title>
			<desc>ads62p48.hdl &#60;HdlDevice&#62;</desc>
			<v:textBlock v:margins="rect(4,4,4,4)" v:tabSpace="42.5197"/>
			<v:textRect cx="71.4589" cy="353.975" width="142.92" height="28.3465"/>
			<rect x="0" y="339.802" width="142.918" height="28.3465" class="st6"/>
			<text x="49.54" y="351.58" class="st4" v:langID="2057"><v:paragraph v:horizAlign="1"/><v:tabList/>ads62p48.hdl<v:newlineChar/><tspan
						x="51.11" dy="1.2em" class="st5">&#60;HdlDevice&#62;</tspan></text>		</g>
		<g id="shape42-64" v:mID="42" v:groupContext="shape" transform="translate(414.709,-151.32)">
			<title>Sheet.42</title>
			<desc>ad9146.hdl &#60;HdlDevice&#62;</desc>
			<v:textBlock v:margins="rect(4,4,4,4)" v:tabSpace="42.5197"/>
			<v:textRect cx="71.4589" cy="353.975" width="142.92" height="28.3465"/>
			<rect x="0" y="339.802" width="142.918" height="28.3465" class="st6"/>
			<text x="53.2" y="351.58" class="st4" v:langID="2057"><v:paragraph v:horizAlign="1"/><v:tabList/>ad9146.hdl<v:newlineChar/><tspan
						x="51.11" dy="1.2em" class="st5">&#60;HdlDevice&#62;</tspan></text>		</g>
		<g id="shape44-68" v:mID="44" v:groupContext="shape" v:layerMember="0" transform="translate(388.203,-158.406)">
			<title>Dynamic connector.44</title>
			<path d="M0 361.06 L19.97 361.06" class="st7"/>
		</g>
		<g id="shape45-73" v:mID="45" v:groupContext="shape" v:layerMember="0" transform="translate(415.533,-118.721)">
			<title>Dynamic connector.45</title>
			<path d="M0 361.06 L-19.73 361.06" class="st7"/>
		</g>
		<g id="shape46-78" v:mID="46" v:groupContext="shape" v:layerMember="0" transform="translate(247.395,-118.721)">
			<title>Dynamic connector.50</title>
			<path d="M0 361.06 L-13.23 361.06" class="st7"/>
		</g>
		<g id="shape50-83" v:mID="50" v:groupContext="shape" transform="translate(128.388,-151.32)">
			<title>Sheet.50</title>
			<desc>iq_calibration.hdl &#60;HdlWorker&#62;</desc>
			<v:textBlock v:margins="rect(4,4,4,4)" v:tabSpace="42.5197"/>
			<v:textRect cx="49.6172" cy="353.975" width="99.24" height="28.3465"/>
			<rect x="0" y="339.802" width="99.2344" height="28.3465" class="st9"/>
			<text x="21.15" y="351.58" class="st4" v:langID="2057"><v:paragraph v:horizAlign="1"/><v:tabList/>iq_calibration.hdl<v:newlineChar/><tspan
						x="27.86" dy="1.2em" class="st5">&#60;HdlWorker&#62;</tspan></text>		</g>
		<g id="shape51-87" v:mID="51" v:groupContext="shape" v:layerMember="0" transform="translate(227.622,-158.406)">
			<title>Dynamic connector.55</title>
			<path d="M0 361.06 L12.17 361.06" class="st7"/>
		</g>
		<g id="shape52-92" v:mID="52" v:groupContext="shape" transform="translate(128.388,-111.635)">
			<title>Sheet.52</title>
			<desc>iq_calibration.hdl &#60;HdlWorker&#62;</desc>
			<v:textBlock v:margins="rect(4,4,4,4)" v:tabSpace="42.5197"/>
			<v:textRect cx="49.6172" cy="353.975" width="99.24" height="28.3465"/>
			<rect x="0" y="339.802" width="99.2344" height="28.3465" class="st9"/>
			<text x="21.15" y="351.58" class="st4" v:langID="2057"><v:paragraph v:horizAlign="1"/><v:tabList/>iq_calibration.hdl<v:newlineChar/><tspan
						x="27.86" dy="1.2em" class="st5">&#60;HdlWorker&#62;</tspan></text>		</g>
		<g id="shape55-96" v:mID="55" v:groupContext="shape" transform="translate(247.395,-32.2648)">
			<title>Sheet.55</title>
			<desc>data_source_qadc_csts.hdl &#60;HdlDevice&#62;</desc>
			<v:textBlock v:margins="rect(4,4,4,4)" v:tabSpace="42.5197"/>
			<v:textRect cx="70.936" cy="353.975" width="141.88" height="28.3465"/>
			<rect x="0" y="339.802" width="141.872" height="28.3465" class="st3"/>
			<text x="26.73" y="351.58" class="st4" v:langID="2057"><v:paragraph v:horizAlign="1"/><v:tabList/>data_source_qadc_csts.hdl<v:newlineChar/><tspan
						x="50.58" dy="1.2em" class="st5">&#60;HdlDevice&#62;</tspan></text>		</g>
		<g id="shape56-100" v:mID="56" v:groupContext="shape" transform="translate(248.459,-71.9498)">
			<title>Sheet.56</title>
			<desc>data_sink_qdac_csts.hdl &#60;HdlDevice&#62;</desc>
			<v:textBlock v:margins="rect(4,4,4,4)" v:tabSpace="42.5197"/>
			<v:textRect cx="70.936" cy="353.975" width="141.88" height="28.3465"/>
			<rect x="0" y="339.802" width="141.872" height="28.3465" class="st3"/>
			<text x="31.18" y="351.58" class="st4" v:langID="2057"><v:paragraph v:horizAlign="1"/><v:tabList/>data_sink_qdac_csts.hdl<v:newlineChar/><tspan
						x="50.58" dy="1.2em" class="st5">&#60;HdlDevice&#62;</tspan></text>		</g>
		<g id="shape57-104" v:mID="57" v:groupContext="shape" transform="translate(415.533,-32.2648)">
			<title>Sheet.57</title>
			<desc>ads62p48.hdl &#60;HdlDevice&#62;</desc>
			<v:textBlock v:margins="rect(4,4,4,4)" v:tabSpace="42.5197"/>
			<v:textRect cx="71.4589" cy="353.975" width="142.92" height="28.3465"/>
			<rect x="0" y="339.802" width="142.918" height="28.3465" class="st6"/>
			<text x="49.54" y="351.58" class="st4" v:langID="2057"><v:paragraph v:horizAlign="1"/><v:tabList/>ads62p48.hdl<v:newlineChar/><tspan
						x="51.11" dy="1.2em" class="st5">&#60;HdlDevice&#62;</tspan></text>		</g>
		<g id="shape58-108" v:mID="58" v:groupContext="shape" transform="translate(416.358,-71.9498)">
			<title>Sheet.58</title>
			<desc>ad9146.hdl &#60;HdlDevice&#62;</desc>
			<v:textBlock v:margins="rect(4,4,4,4)" v:tabSpace="42.5197"/>
			<v:textRect cx="71.4589" cy="353.975" width="142.92" height="28.3465"/>
			<rect x="0" y="339.802" width="142.918" height="28.3465" class="st6"/>
			<text x="53.2" y="351.58" class="st4" v:langID="2057"><v:paragraph v:horizAlign="1"/><v:tabList/>ad9146.hdl<v:newlineChar/><tspan
						x="51.11" dy="1.2em" class="st5">&#60;HdlDevice&#62;</tspan></text>		</g>
		<g id="shape60-112" v:mID="60" v:groupContext="shape" v:layerMember="0" transform="translate(390.331,-79.0364)">
			<title>Dynamic connector.60</title>
			<path d="M0 361.06 L19.49 361.06" class="st7"/>
		</g>
		<g id="shape61-117" v:mID="61" v:groupContext="shape" v:layerMember="0" transform="translate(415.533,-39.3514)">
			<title>Dynamic connector.66</title>
			<path d="M0 361.06 L-19.73 361.06" class="st7"/>
		</g>
		<g id="shape62-122" v:mID="62" v:groupContext="shape" v:layerMember="0" transform="translate(247.395,-39.3514)">
			<title>Dynamic connector.62</title>
			<path d="M0 361.06 L-13.23 361.06" class="st7"/>
		</g>
		<g id="shape64-127" v:mID="64" v:groupContext="shape" transform="translate(128.388,-71.9498)">
			<title>Sheet.64</title>
			<desc>iq_calibration.hdl &#60;HdlWorker&#62;</desc>
			<v:textBlock v:margins="rect(4,4,4,4)" v:tabSpace="42.5197"/>
			<v:textRect cx="49.6172" cy="353.975" width="99.24" height="28.3465"/>
			<rect x="0" y="339.802" width="99.2344" height="28.3465" class="st9"/>
			<text x="21.15" y="351.58" class="st4" v:langID="2057"><v:paragraph v:horizAlign="1"/><v:tabList/>iq_calibration.hdl<v:newlineChar/><tspan
						x="27.86" dy="1.2em" class="st5">&#60;HdlWorker&#62;</tspan></text>		</g>
		<g id="shape65-131" v:mID="65" v:groupContext="shape" v:layerMember="0" transform="translate(227.622,-79.0364)">
			<title>Dynamic connector.70</title>
			<path d="M0 361.06 L14.3 361.06" class="st7"/>
		</g>
		<g id="shape66-136" v:mID="66" v:groupContext="shape" transform="translate(128.388,-32.2648)">
			<title>Sheet.66</title>
			<desc>iq_calibration.hdl &#60;HdlWorker&#62;</desc>
			<v:textBlock v:margins="rect(4,4,4,4)" v:tabSpace="42.5197"/>
			<v:textRect cx="49.6172" cy="353.975" width="99.24" height="28.3465"/>
			<rect x="0" y="339.802" width="99.2344" height="28.3465" class="st9"/>
			<text x="21.15" y="351.58" class="st4" v:langID="2057"><v:paragraph v:horizAlign="1"/><v:tabList/>iq_calibration.hdl<v:newlineChar/><tspan
						x="27.86" dy="1.2em" class="st5">&#60;HdlWorker&#62;</tspan></text>		</g>
		<g id="shape75-140" v:mID="75" v:groupContext="shape" transform="translate(18.12,-230.973)">
			<title>Rectangle</title>
			<desc>Application</desc>
			<v:userDefs>
				<v:ud v:nameU="visVersion" v:val="VT0(15):26"/>
				<v:ud v:nameU="visMasterStencil" v:prompt="" v:val="VT4(Basic_M.vssx)"/>
			</v:userDefs>
			<v:textBlock v:margins="rect(4,4,4,4)" v:tabSpace="42.5197"/>
			<v:textRect cx="33.4016" cy="308.621" width="66.81" height="119.055"/>
			<rect x="0" y="249.093" width="66.8031" height="119.055" class="st10"/>
			<text x="14.97" y="311.02" class="st4" v:langID="2057"><v:paragraph v:horizAlign="1"/><v:tabList/>Application</text>		</g>
		<g id="shape76-143" v:mID="76" v:groupContext="shape" transform="translate(18.12,-18.375)">
			<title>Rectangle.76</title>
			<desc>Application</desc>
			<v:userDefs>
				<v:ud v:nameU="visVersion" v:val="VT0(15):26"/>
				<v:ud v:nameU="visMasterStencil" v:prompt="" v:val="VT4(Basic_M.vssx)"/>
			</v:userDefs>
			<v:textBlock v:margins="rect(4,4,4,4)" v:tabSpace="42.5197"/>
			<v:textRect cx="33.4016" cy="273.33" width="66.81" height="189.638"/>
			<rect x="0" y="178.511" width="66.8031" height="189.638" class="st10"/>
			<text x="14.97" y="275.73" class="st4" v:langID="2057"><v:paragraph v:horizAlign="1"/><v:tabList/>Application</text>		</g>
		<g id="shape80-146" v:mID="80" v:groupContext="shape" transform="translate(128.388,429.072) rotate(180)">
			<title>Sheet.80</title>
			<path d="M9.45 368.15 L9.81 368.15 L43.46 368.15" class="st11"/>
		</g>
		<g id="shape81-152" v:mID="81" v:groupContext="shape" transform="translate(128.388,468.757) rotate(180)">
			<title>Sheet.81</title>
			<path d="M0 368.15 L33.65 368.15" class="st12"/>
		</g>
		<g id="shape82-158" v:mID="82" v:groupContext="shape" transform="translate(128.388,570.804) rotate(180)">
			<title>Sheet.82</title>
			<path d="M9.45 368.15 L9.81 368.15 L43.46 368.15" class="st11"/>
		</g>
		<g id="shape83-163" v:mID="83" v:groupContext="shape" transform="translate(128.388,650.174) rotate(180)">
			<title>Sheet.83</title>
			<path d="M9.45 368.15 L9.81 368.15 L43.46 368.15" class="st11"/>
		</g>
		<g id="shape84-168" v:mID="84" v:groupContext="shape" transform="translate(128.388,610.489) rotate(180)">
			<title>Sheet.84</title>
			<path d="M0 368.15 L33.65 368.15" class="st12"/>
		</g>
		<g id="shape85-173" v:mID="85" v:groupContext="shape" transform="translate(128.388,689.859) rotate(180)">
			<title>Sheet.85</title>
			<path d="M0 368.15 L33.65 368.15" class="st12"/>
		</g>
		<g id="shape86-178" v:mID="86" v:groupContext="shape" transform="translate(83.3326,-304.517)">
			<title>Sheet.86</title>
			<desc>tx[0]</desc>
			<v:textBlock v:margins="rect(4,4,4,4)" v:tabSpace="42.5197"/>
			<v:textRect cx="18.7008" cy="358.149" width="37.41" height="20"/>
			<rect x="0" y="348.149" width="37.4016" height="20" class="st13"/>
			<text x="11.15" y="360.55" class="st4" v:langID="2057"><v:paragraph v:horizAlign="1"/><v:tabList/>tx[0]</text>		</g>
		<g id="shape87-181" v:mID="87" v:groupContext="shape" transform="translate(83.3326,-165.619)">
			<title>Sheet.87</title>
			<desc>tx[0]</desc>
			<v:textBlock v:margins="rect(4,4,4,4)" v:tabSpace="42.5197"/>
			<v:textRect cx="18.7008" cy="358.149" width="37.41" height="20"/>
			<rect x="0" y="348.149" width="37.4016" height="20" class="st13"/>
			<text x="11.15" y="360.55" class="st4" v:langID="2057"><v:paragraph v:horizAlign="1"/><v:tabList/>tx[0]</text>		</g>
		<g id="shape88-184" v:mID="88" v:groupContext="shape" transform="translate(83.3326,-266.328)">
			<title>Sheet.88</title>
			<desc>rx[0]</desc>
			<v:textBlock v:margins="rect(4,4,4,4)" v:tabSpace="42.5197"/>
			<v:textRect cx="18.7008" cy="358.149" width="37.41" height="20"/>
			<rect x="0" y="348.149" width="37.4016" height="20" class="st13"/>
			<text x="11.09" y="360.55" class="st4" v:langID="2057"><v:paragraph v:horizAlign="1"/><v:tabList/>rx[0]</text>		</g>
		<g id="shape89-187" v:mID="89" v:groupContext="shape" transform="translate(83.3326,-124.517)">
			<title>Sheet.89</title>
			<desc>rx[0]</desc>
			<v:textBlock v:margins="rect(4,4,4,4)" v:tabSpace="42.5197"/>
			<v:textRect cx="18.7008" cy="358.149" width="37.41" height="20"/>
			<rect x="0" y="348.149" width="37.4016" height="20" class="st13"/>
			<text x="11.09" y="360.55" class="st4" v:langID="2057"><v:paragraph v:horizAlign="1"/><v:tabList/>rx[0]</text>		</g>
		<g id="shape90-190" v:mID="90" v:groupContext="shape" transform="translate(83.3326,-82.1545)">
			<title>Sheet.90</title>
			<desc>tx[1]</desc>
			<v:textBlock v:margins="rect(4,4,4,4)" v:tabSpace="42.5197"/>
			<v:textRect cx="18.7008" cy="358.149" width="37.41" height="20"/>
			<rect x="0" y="348.149" width="37.4016" height="20" class="st13"/>
			<text x="11.15" y="360.55" class="st4" v:langID="2057"><v:paragraph v:horizAlign="1"/><v:tabList/>tx[1]</text>		</g>
		<g id="shape91-193" v:mID="91" v:groupContext="shape" transform="translate(83.3326,-46.564)">
			<title>Sheet.91</title>
			<desc>rx[1]</desc>
			<v:textBlock v:margins="rect(4,4,4,4)" v:tabSpace="42.5197"/>
			<v:textRect cx="18.7008" cy="358.149" width="37.41" height="20"/>
			<rect x="0" y="348.149" width="37.4016" height="20" class="st13"/>
			<text x="11.09" y="360.55" class="st4" v:langID="2057"><v:paragraph v:horizAlign="1"/><v:tabList/>rx[1]</text>		</g>
		<g id="shape92-196" v:mID="92" v:groupContext="shape" transform="translate(113.648,-106.299)">
			<title>Sheet.92</title>
			<path d="M0 368.15 L451.3 368.15" class="st14"/>
		</g>
	</g>
</svg>
